rtl/filt.vcd
$date
	Mon Apr 28 16:54:21 2025
$end

$version
	Synopsys VCS version U-2023.03-SP2-8
$end

$timescale
	10ps
$end

$comment Csum: 1 b9cfbb0e1914ff8b $end


$scope module top $end
$var reg 1 ! Clock $end
$var reg 1 " Reset $end
$var reg 1 # FILTER $end
$var reg 1 $ BitIn $end
$var reg 1 % Push $end
$var reg 16 & Dout [15:0] $end
$var reg 1 ' forking $end
$var reg 1 ( sp $end
$var integer 32 ) scnt $end
$var reg 32 * nidat [31:0] $end
$var reg 32 + len_idat [31:0] $end
$var reg 32 , sendix [31:0] $end
$var reg 32 - tnum [31:0] $end

$scope begin unnamed$$_0 $end
$var reg 18 . ex [17:0] $end
$var reg 18 / act [17:0] $end
$var reg 18 0 delta [17:0] $end
$upscope $end


$scope begin unnamed$$_vcs_3 $end
$upscope $end


$scope begin unnamed$$_1 $end
$var reg 1 1 ov $end
$var reg 1 2 s1 $end
$upscope $end


$scope begin unnamed$$_vcs_0 $end
$upscope $end


$scope begin unnamed$$_vcs_1 $end
$upscope $end


$scope begin unnamed$$_vcs_2 $end
$upscope $end


$scope module f1 $end
$var reg 1 ! Clock $end
$var reg 1 " Reset $end
$var reg 1 # FILTER $end
$var reg 1 $ BitIn $end
$var reg 16 & Dout [15:0] $end
$var reg 1 % Push $end
$var reg 3 3 state [2:0] $end
$var reg 3 4 next_state [2:0] $end
$var reg 1 5 end_of_buffer $end
$var reg 9 6 buf_idx [8:0] $end
$var reg 512 7 buf_in [511:0] $end
$var reg 512 8 buf_calc [511:0] $end

$scope module buf_counter $end
$var reg 1 ! clk $end
$var reg 1 " rst $end
$var reg 1 9 en $end
$var reg 9 6 out [8:0] $end
$var reg 9 6 counter [8:0] $end
$upscope $end

$upscope $end

$upscope $end

$enddefinitions $end

#0
$dumpvars
0$
1!
0#
0%
1"
0'
0(
01
x2
b0000000000000000 &
b00000000000000000000000000000000000000000000000000000000000000000000000000000000000000000000000000000000000000000000000000000000000000000000000000000000000000000000000000000000000000000000000000000000000000000000000000000000000000000000000000000000000000000000000000000000000000000000000000000000000000000000000000000000000000000000000000000000000000000000000000000000000000000000000000000000000000000000000000000000000000000000000000000000000000000000000000000000000000000000000000000000000000000000000000000000 8
b00000000000000000000000000000000000000000000000000000000000000000000000000000000000000000000000000000000000000000000000000000000000000000000000000000000000000000000000000000000000000000000000000000000000000000000000000000000000000000000000000000000000000000000000000000000000000000000000000000000000000000000000000000000000000000000000000000000000000000000000000000000000000000000000000000000000000000000000000000000000000000000000000000000000000000000000000000000000000000000000000000000000000000000000000000000 7
b000000000 6
b000 4
b00000000000000000000000000000000 )
b000 3
bxxxxxxxxxxxxxxxxxx /
bxxxxxxxxxxxxxxxxxx 0
bxxxxxxxxxxxxxxxxxx .
b00000000000000000000000111011100 +
b00000000000000011101110000000000 *
b00000000000000000000000000000000 ,
b00000000000000000000000000000000 -
19
x5
$end
#500
0!
#1000
1!
#1500
0!
#2000
1!
#2500
0!
#3000
1!
#3100
0"
#3110
02
1(
#3210
0(
b00000000000000000000000000000001 )
#3500
0!
#4000
1!
b000000001 6
#4100
1$
1(
#4200
0(
b00000000000000000000000000000010 )
#4500
0!
#5000
1!
b00000000000000000000000000000000000000000000000000000000000000000000000000000000000000000000000000000000000000000000000000000000000000000000000000000000000000000000000000000000000000000000000000000000000000000000000000000000000000000000000000000000000000000000000000000000000000000000000000000000000000000000000000000000000000000000000000000000000000000000000000000000000000000000000000000000000000000000000000000000000000000000000000000000000000000000000000000000000000000000000000000000000000000000000000000010 7
b000000010 6
#5100
1(
#5200
0(
b00000000000000000000000000000011 )
#5500
0!
#6000
1!
b00000000000000000000000000000000000000000000000000000000000000000000000000000000000000000000000000000000000000000000000000000000000000000000000000000000000000000000000000000000000000000000000000000000000000000000000000000000000000000000000000000000000000000000000000000000000000000000000000000000000000000000000000000000000000000000000000000000000000000000000000000000000000000000000000000000000000000000000000000000000000000000000000000000000000000000000000000000000000000000000000000000000000000000000000000110 7
b000000011 6
#6100
0$
1(
#6200
0(
b00000000000000000000000000000100 )
#6500
0!
#7000
1!
b000000100 6
#7100
1(
#7200
0(
b00000000000000000000000000000101 )
#7500
0!
#8000
1!
b000000101 6
#8100
1(
#8200
0(
b00000000000000000000000000000110 )
#8500
0!
#9000
1!
b000000110 6
#9100
1$
1(
#9200
0(
b00000000000000000000000000000111 )
#9500
0!
#10000
1!
b00000000000000000000000000000000000000000000000000000000000000000000000000000000000000000000000000000000000000000000000000000000000000000000000000000000000000000000000000000000000000000000000000000000000000000000000000000000000000000000000000000000000000000000000000000000000000000000000000000000000000000000000000000000000000000000000000000000000000000000000000000000000000000000000000000000000000000000000000000000000000000000000000000000000000000000000000000000000000000000000000000000000000000000000001000110 7
b000000111 6
#10100
1(
#10200
0(
b00000000000000000000000000001000 )
#10500
0!
#11000
1!
b00000000000000000000000000000000000000000000000000000000000000000000000000000000000000000000000000000000000000000000000000000000000000000000000000000000000000000000000000000000000000000000000000000000000000000000000000000000000000000000000000000000000000000000000000000000000000000000000000000000000000000000000000000000000000000000000000000000000000000000000000000000000000000000000000000000000000000000000000000000000000000000000000000000000000000000000000000000000000000000000000000000000000000000000011000110 7
b000001000 6
#11100
1(
#11200
0(
b00000000000000000000000000001001 )
#11500
0!
#12000
1!
b00000000000000000000000000000000000000000000000000000000000000000000000000000000000000000000000000000000000000000000000000000000000000000000000000000000000000000000000000000000000000000000000000000000000000000000000000000000000000000000000000000000000000000000000000000000000000000000000000000000000000000000000000000000000000000000000000000000000000000000000000000000000000000000000000000000000000000000000000000000000000000000000000000000000000000000000000000000000000000000000000000000000000000000000111000110 7
b000001001 6
#12100
0$
1(
#12200
0(
b00000000000000000000000000001010 )
#12500
0!
#13000
1!
b000001010 6
#13100
1(
#13200
0(
b00000000000000000000000000001011 )
#13500
0!
#14000
1!
b000001011 6
#14100
1$
1(
#14200
0(
b00000000000000000000000000001100 )
#14500
0!
#15000
1!
b00000000000000000000000000000000000000000000000000000000000000000000000000000000000000000000000000000000000000000000000000000000000000000000000000000000000000000000000000000000000000000000000000000000000000000000000000000000000000000000000000000000000000000000000000000000000000000000000000000000000000000000000000000000000000000000000000000000000000000000000000000000000000000000000000000000000000000000000000000000000000000000000000000000000000000000000000000000000000000000000000000000000000000000100111000110 7
b000001100 6
#15100
1(
#15200
0(
b00000000000000000000000000001101 )
#15500
0!
#16000
1!
b00000000000000000000000000000000000000000000000000000000000000000000000000000000000000000000000000000000000000000000000000000000000000000000000000000000000000000000000000000000000000000000000000000000000000000000000000000000000000000000000000000000000000000000000000000000000000000000000000000000000000000000000000000000000000000000000000000000000000000000000000000000000000000000000000000000000000000000000000000000000000000000000000000000000000000000000000000000000000000000000000000000000000000001100111000110 7
b000001101 6
#16100
0$
1(
#16200
0(
b00000000000000000000000000001110 )
#16500
0!
#17000
1!
b000001110 6
#17100
1(
#17200
0(
b00000000000000000000000000001111 )
#17500
0!
#18000
1!
b000001111 6
#18100
1(
#18200
0(
b00000000000000000000000000010000 )
#18500
0!
#19000
1!
b000010000 6
#19100
1$
1(
#19200
0(
b00000000000000000000000000010001 )
#19500
0!
#20000
1!
b00000000000000000000000000000000000000000000000000000000000000000000000000000000000000000000000000000000000000000000000000000000000000000000000000000000000000000000000000000000000000000000000000000000000000000000000000000000000000000000000000000000000000000000000000000000000000000000000000000000000000000000000000000000000000000000000000000000000000000000000000000000000000000000000000000000000000000000000000000000000000000000000000000000000000000000000000000000000000000000000000000000000000010001100111000110 7
b000010001 6
#20100
1(
#20200
0(
b00000000000000000000000000010010 )
#20500
0!
#21000
1!
b00000000000000000000000000000000000000000000000000000000000000000000000000000000000000000000000000000000000000000000000000000000000000000000000000000000000000000000000000000000000000000000000000000000000000000000000000000000000000000000000000000000000000000000000000000000000000000000000000000000000000000000000000000000000000000000000000000000000000000000000000000000000000000000000000000000000000000000000000000000000000000000000000000000000000000000000000000000000000000000000000000000000000110001100111000110 7
b000010010 6
#21100
1(
#21200
0(
b00000000000000000000000000010011 )
#21500
0!
#22000
1!
b00000000000000000000000000000000000000000000000000000000000000000000000000000000000000000000000000000000000000000000000000000000000000000000000000000000000000000000000000000000000000000000000000000000000000000000000000000000000000000000000000000000000000000000000000000000000000000000000000000000000000000000000000000000000000000000000000000000000000000000000000000000000000000000000000000000000000000000000000000000000000000000000000000000000000000000000000000000000000000000000000000000000001110001100111000110 7
b000010011 6
#22100
0$
1(
#22200
0(
b00000000000000000000000000010100 )
#22500
0!
#23000
1!
b000010100 6
#23100
1(
#23200
0(
b00000000000000000000000000010101 )
#23500
0!
#24000
1!
b000010101 6
#24100
1$
1(
#24200
0(
b00000000000000000000000000010110 )
#24500
0!
#25000
1!
b00000000000000000000000000000000000000000000000000000000000000000000000000000000000000000000000000000000000000000000000000000000000000000000000000000000000000000000000000000000000000000000000000000000000000000000000000000000000000000000000000000000000000000000000000000000000000000000000000000000000000000000000000000000000000000000000000000000000000000000000000000000000000000000000000000000000000000000000000000000000000000000000000000000000000000000000000000000000000000000000000000000001001110001100111000110 7
b000010110 6
#25100
1(
#25200
0(
b00000000000000000000000000010111 )
#25500
0!
#26000
1!
b00000000000000000000000000000000000000000000000000000000000000000000000000000000000000000000000000000000000000000000000000000000000000000000000000000000000000000000000000000000000000000000000000000000000000000000000000000000000000000000000000000000000000000000000000000000000000000000000000000000000000000000000000000000000000000000000000000000000000000000000000000000000000000000000000000000000000000000000000000000000000000000000000000000000000000000000000000000000000000000000000000000011001110001100111000110 7
b000010111 6
#26100
0$
1(
#26200
0(
b00000000000000000000000000011000 )
#26500
0!
#27000
1!
b000011000 6
#27100
1(
#27200
0(
b00000000000000000000000000011001 )
#27500
0!
#28000
1!
b000011001 6
#28100
1(
#28200
0(
b00000000000000000000000000011010 )
#28500
0!
#29000
1!
b000011010 6
#29100
1$
1(
#29200
0(
b00000000000000000000000000011011 )
#29500
0!
#30000
1!
b00000000000000000000000000000000000000000000000000000000000000000000000000000000000000000000000000000000000000000000000000000000000000000000000000000000000000000000000000000000000000000000000000000000000000000000000000000000000000000000000000000000000000000000000000000000000000000000000000000000000000000000000000000000000000000000000000000000000000000000000000000000000000000000000000000000000000000000000000000000000000000000000000000000000000000000000000000000000000000000000000000100011001110001100111000110 7
b000011011 6
#30100
1(
#30200
0(
b00000000000000000000000000011100 )
#30500
0!
#31000
1!
b00000000000000000000000000000000000000000000000000000000000000000000000000000000000000000000000000000000000000000000000000000000000000000000000000000000000000000000000000000000000000000000000000000000000000000000000000000000000000000000000000000000000000000000000000000000000000000000000000000000000000000000000000000000000000000000000000000000000000000000000000000000000000000000000000000000000000000000000000000000000000000000000000000000000000000000000000000000000000000000000000001100011001110001100111000110 7
b000011100 6
#31100
1(
#31200
0(
b00000000000000000000000000011101 )
#31500
0!
#32000
1!
b00000000000000000000000000000000000000000000000000000000000000000000000000000000000000000000000000000000000000000000000000000000000000000000000000000000000000000000000000000000000000000000000000000000000000000000000000000000000000000000000000000000000000000000000000000000000000000000000000000000000000000000000000000000000000000000000000000000000000000000000000000000000000000000000000000000000000000000000000000000000000000000000000000000000000000000000000000000000000000000000000011100011001110001100111000110 7
b000011101 6
#32100
0$
1(
#32200
0(
b00000000000000000000000000011110 )
#32500
0!
#33000
1!
b000011110 6
#33100
1(
#33200
0(
b00000000000000000000000000011111 )
#33500
0!
#34000
1!
b000011111 6
#34100
1$
1(
#34200
0(
b00000000000000000000000000100000 )
#34500
0!
#35000
1!
b00000000000000000000000000000000000000000000000000000000000000000000000000000000000000000000000000000000000000000000000000000000000000000000000000000000000000000000000000000000000000000000000000000000000000000000000000000000000000000000000000000000000000000000000000000000000000000000000000000000000000000000000000000000000000000000000000000000000000000000000000000000000000000000000000000000000000000000000000000000000000000000000000000000000000000000000000000000000000000000000010011100011001110001100111000110 7
b000100000 6
#35100
1(
#35200
0(
b00000000000000000000000000100001 )
#35500
0!
#36000
1!
b00000000000000000000000000000000000000000000000000000000000000000000000000000000000000000000000000000000000000000000000000000000000000000000000000000000000000000000000000000000000000000000000000000000000000000000000000000000000000000000000000000000000000000000000000000000000000000000000000000000000000000000000000000000000000000000000000000000000000000000000000000000000000000000000000000000000000000000000000000000000000000000000000000000000000000000000000000000000000000000000110011100011001110001100111000110 7
b000100001 6
#36100
0$
1(
#36200
0(
b00000000000000000000000000100010 )
#36500
0!
#37000
1!
b000100010 6
#37100
1(
#37200
0(
b00000000000000000000000000100011 )
#37500
0!
#38000
1!
b000100011 6
#38100
1(
#38200
0(
b00000000000000000000000000100100 )
#38500
0!
#39000
1!
b000100100 6
#39100
1$
1(
#39200
0(
b00000000000000000000000000100101 )
#39500
0!
#40000
1!
b00000000000000000000000000000000000000000000000000000000000000000000000000000000000000000000000000000000000000000000000000000000000000000000000000000000000000000000000000000000000000000000000000000000000000000000000000000000000000000000000000000000000000000000000000000000000000000000000000000000000000000000000000000000000000000000000000000000000000000000000000000000000000000000000000000000000000000000000000000000000000000000000000000000000000000000000000000000000000000001000110011100011001110001100111000110 7
b000100101 6
#40100
1(
#40200
0(
b00000000000000000000000000100110 )
#40500
0!
#41000
1!
b00000000000000000000000000000000000000000000000000000000000000000000000000000000000000000000000000000000000000000000000000000000000000000000000000000000000000000000000000000000000000000000000000000000000000000000000000000000000000000000000000000000000000000000000000000000000000000000000000000000000000000000000000000000000000000000000000000000000000000000000000000000000000000000000000000000000000000000000000000000000000000000000000000000000000000000000000000000000000000011000110011100011001110001100111000110 7
b000100110 6
#41100
1(
#41200
0(
b00000000000000000000000000100111 )
#41500
0!
#42000
1!
b00000000000000000000000000000000000000000000000000000000000000000000000000000000000000000000000000000000000000000000000000000000000000000000000000000000000000000000000000000000000000000000000000000000000000000000000000000000000000000000000000000000000000000000000000000000000000000000000000000000000000000000000000000000000000000000000000000000000000000000000000000000000000000000000000000000000000000000000000000000000000000000000000000000000000000000000000000000000000000111000110011100011001110001100111000110 7
b000100111 6
#42100
0$
1(
#42200
0(
b00000000000000000000000000101000 )
#42500
0!
#43000
1!
b000101000 6
#43100
1(
#43200
0(
b00000000000000000000000000101001 )
#43500
0!
#44000
1!
b000101001 6
#44100
1$
1(
#44200
0(
b00000000000000000000000000101010 )
#44500
0!
#45000
1!
b00000000000000000000000000000000000000000000000000000000000000000000000000000000000000000000000000000000000000000000000000000000000000000000000000000000000000000000000000000000000000000000000000000000000000000000000000000000000000000000000000000000000000000000000000000000000000000000000000000000000000000000000000000000000000000000000000000000000000000000000000000000000000000000000000000000000000000000000000000000000000000000000000000000000000000000000000000000000000100111000110011100011001110001100111000110 7
b000101010 6
#45100
1(
#45200
0(
b00000000000000000000000000101011 )
#45500
0!
#46000
1!
b00000000000000000000000000000000000000000000000000000000000000000000000000000000000000000000000000000000000000000000000000000000000000000000000000000000000000000000000000000000000000000000000000000000000000000000000000000000000000000000000000000000000000000000000000000000000000000000000000000000000000000000000000000000000000000000000000000000000000000000000000000000000000000000000000000000000000000000000000000000000000000000000000000000000000000000000000000000000001100111000110011100011001110001100111000110 7
b000101011 6
#46100
0$
1(
#46200
0(
b00000000000000000000000000101100 )
#46500
0!
#47000
1!
b000101100 6
#47100
1(
#47200
0(
b00000000000000000000000000101101 )
#47500
0!
#48000
1!
b000101101 6
#48100
1(
#48200
0(
b00000000000000000000000000101110 )
#48500
0!
#49000
1!
b000101110 6
#49100
1$
1(
#49200
0(
b00000000000000000000000000101111 )
#49500
0!
#50000
1!
b00000000000000000000000000000000000000000000000000000000000000000000000000000000000000000000000000000000000000000000000000000000000000000000000000000000000000000000000000000000000000000000000000000000000000000000000000000000000000000000000000000000000000000000000000000000000000000000000000000000000000000000000000000000000000000000000000000000000000000000000000000000000000000000000000000000000000000000000000000000000000000000000000000000000000000000000000000000010001100111000110011100011001110001100111000110 7
b000101111 6
#50100
1(
#50200
0(
b00000000000000000000000000110000 )
#50500
0!
#51000
1!
b00000000000000000000000000000000000000000000000000000000000000000000000000000000000000000000000000000000000000000000000000000000000000000000000000000000000000000000000000000000000000000000000000000000000000000000000000000000000000000000000000000000000000000000000000000000000000000000000000000000000000000000000000000000000000000000000000000000000000000000000000000000000000000000000000000000000000000000000000000000000000000000000000000000000000000000000000000000110001100111000110011100011001110001100111000110 7
b000110000 6
#51100
1(
#51200
0(
b00000000000000000000000000110001 )
#51500
0!
#52000
1!
b00000000000000000000000000000000000000000000000000000000000000000000000000000000000000000000000000000000000000000000000000000000000000000000000000000000000000000000000000000000000000000000000000000000000000000000000000000000000000000000000000000000000000000000000000000000000000000000000000000000000000000000000000000000000000000000000000000000000000000000000000000000000000000000000000000000000000000000000000000000000000000000000000000000000000000000000000000001110001100111000110011100011001110001100111000110 7
b000110001 6
#52100
0$
1(
#52200
0(
b00000000000000000000000000110010 )
#52500
0!
#53000
1!
b000110010 6
#53100
1(
#53200
0(
b00000000000000000000000000110011 )
#53500
0!
#54000
1!
b000110011 6
#54100
1$
1(
#54200
0(
b00000000000000000000000000110100 )
#54500
0!
#55000
1!
b00000000000000000000000000000000000000000000000000000000000000000000000000000000000000000000000000000000000000000000000000000000000000000000000000000000000000000000000000000000000000000000000000000000000000000000000000000000000000000000000000000000000000000000000000000000000000000000000000000000000000000000000000000000000000000000000000000000000000000000000000000000000000000000000000000000000000000000000000000000000000000000000000000000000000000000000000001001110001100111000110011100011001110001100111000110 7
b000110100 6
#55100
1(
#55200
0(
b00000000000000000000000000110101 )
#55500
0!
#56000
1!
b00000000000000000000000000000000000000000000000000000000000000000000000000000000000000000000000000000000000000000000000000000000000000000000000000000000000000000000000000000000000000000000000000000000000000000000000000000000000000000000000000000000000000000000000000000000000000000000000000000000000000000000000000000000000000000000000000000000000000000000000000000000000000000000000000000000000000000000000000000000000000000000000000000000000000000000000000011001110001100111000110011100011001110001100111000110 7
b000110101 6
#56100
0$
1(
#56200
0(
b00000000000000000000000000110110 )
#56500
0!
#57000
1!
b000110110 6
#57100
1(
#57200
0(
b00000000000000000000000000110111 )
#57500
0!
#58000
1!
b000110111 6
#58100
1(
#58200
0(
b00000000000000000000000000111000 )
#58500
0!
#59000
1!
b000111000 6
#59100
1$
1(
#59200
0(
b00000000000000000000000000111001 )
#59500
0!
#60000
1!
b00000000000000000000000000000000000000000000000000000000000000000000000000000000000000000000000000000000000000000000000000000000000000000000000000000000000000000000000000000000000000000000000000000000000000000000000000000000000000000000000000000000000000000000000000000000000000000000000000000000000000000000000000000000000000000000000000000000000000000000000000000000000000000000000000000000000000000000000000000000000000000000000000000000000000000000000100011001110001100111000110011100011001110001100111000110 7
b000111001 6
#60100
1(
#60200
0(
b00000000000000000000000000111010 )
#60500
0!
#61000
1!
b00000000000000000000000000000000000000000000000000000000000000000000000000000000000000000000000000000000000000000000000000000000000000000000000000000000000000000000000000000000000000000000000000000000000000000000000000000000000000000000000000000000000000000000000000000000000000000000000000000000000000000000000000000000000000000000000000000000000000000000000000000000000000000000000000000000000000000000000000000000000000000000000000000000000000000000001100011001110001100111000110011100011001110001100111000110 7
b000111010 6
#61100
1(
#61200
0(
b00000000000000000000000000111011 )
#61500
0!
#62000
1!
b00000000000000000000000000000000000000000000000000000000000000000000000000000000000000000000000000000000000000000000000000000000000000000000000000000000000000000000000000000000000000000000000000000000000000000000000000000000000000000000000000000000000000000000000000000000000000000000000000000000000000000000000000000000000000000000000000000000000000000000000000000000000000000000000000000000000000000000000000000000000000000000000000000000000000000000011100011001110001100111000110011100011001110001100111000110 7
b000111011 6
#62100
0$
1(
#62200
0(
b00000000000000000000000000111100 )
#62500
0!
#63000
1!
b000111100 6
#63100
1(
#63200
0(
b00000000000000000000000000111101 )
#63500
0!
#64000
1!
b000111101 6
#64100
1$
1(
#64200
0(
b00000000000000000000000000111110 )
#64500
0!
#65000
1!
b00000000000000000000000000000000000000000000000000000000000000000000000000000000000000000000000000000000000000000000000000000000000000000000000000000000000000000000000000000000000000000000000000000000000000000000000000000000000000000000000000000000000000000000000000000000000000000000000000000000000000000000000000000000000000000000000000000000000000000000000000000000000000000000000000000000000000000000000000000000000000000000000000000000000000000010011100011001110001100111000110011100011001110001100111000110 7
b000111110 6
#65100
1(
#65200
0(
b00000000000000000000000000111111 )
#65500
0!
#66000
1!
b00000000000000000000000000000000000000000000000000000000000000000000000000000000000000000000000000000000000000000000000000000000000000000000000000000000000000000000000000000000000000000000000000000000000000000000000000000000000000000000000000000000000000000000000000000000000000000000000000000000000000000000000000000000000000000000000000000000000000000000000000000000000000000000000000000000000000000000000000000000000000000000000000000000000000000110011100011001110001100111000110011100011001110001100111000110 7
b000111111 6
#66100
0$
1(
#66200
0(
b00000000000000000000000001000000 )
#66500
0!
#67000
1!
b001000000 6
#67100
1(
#67200
0(
b00000000000000000000000001000001 )
#67500
0!
#68000
1!
b001000001 6
#68100
1(
#68200
0(
b00000000000000000000000001000010 )
#68500
0!
#69000
1!
b001000010 6
#69100
1$
1(
#69200
0(
b00000000000000000000000001000011 )
#69500
0!
#70000
1!
b00000000000000000000000000000000000000000000000000000000000000000000000000000000000000000000000000000000000000000000000000000000000000000000000000000000000000000000000000000000000000000000000000000000000000000000000000000000000000000000000000000000000000000000000000000000000000000000000000000000000000000000000000000000000000000000000000000000000000000000000000000000000000000000000000000000000000000000000000000000000000000000000000000000000001000110011100011001110001100111000110011100011001110001100111000110 7
b001000011 6
#70100
1(
#70200
0(
b00000000000000000000000001000100 )
#70500
0!
#71000
1!
b00000000000000000000000000000000000000000000000000000000000000000000000000000000000000000000000000000000000000000000000000000000000000000000000000000000000000000000000000000000000000000000000000000000000000000000000000000000000000000000000000000000000000000000000000000000000000000000000000000000000000000000000000000000000000000000000000000000000000000000000000000000000000000000000000000000000000000000000000000000000000000000000000000000000011000110011100011001110001100111000110011100011001110001100111000110 7
b001000100 6
#71100
1(
#71200
0(
b00000000000000000000000001000101 )
#71500
0!
#72000
1!
b00000000000000000000000000000000000000000000000000000000000000000000000000000000000000000000000000000000000000000000000000000000000000000000000000000000000000000000000000000000000000000000000000000000000000000000000000000000000000000000000000000000000000000000000000000000000000000000000000000000000000000000000000000000000000000000000000000000000000000000000000000000000000000000000000000000000000000000000000000000000000000000000000000000000111000110011100011001110001100111000110011100011001110001100111000110 7
b001000101 6
#72100
0$
1(
#72200
0(
b00000000000000000000000001000110 )
#72500
0!
#73000
1!
b001000110 6
#73100
1(
#73200
0(
b00000000000000000000000001000111 )
#73500
0!
#74000
1!
b001000111 6
#74100
1$
1(
#74200
0(
b00000000000000000000000001001000 )
#74500
0!
#75000
1!
b00000000000000000000000000000000000000000000000000000000000000000000000000000000000000000000000000000000000000000000000000000000000000000000000000000000000000000000000000000000000000000000000000000000000000000000000000000000000000000000000000000000000000000000000000000000000000000000000000000000000000000000000000000000000000000000000000000000000000000000000000000000000000000000000000000000000000000000000000000000000000000000000000000000100111000110011100011001110001100111000110011100011001110001100111000110 7
b001001000 6
#75100
1(
#75200
0(
b00000000000000000000000001001001 )
#75500
0!
#76000
1!
b00000000000000000000000000000000000000000000000000000000000000000000000000000000000000000000000000000000000000000000000000000000000000000000000000000000000000000000000000000000000000000000000000000000000000000000000000000000000000000000000000000000000000000000000000000000000000000000000000000000000000000000000000000000000000000000000000000000000000000000000000000000000000000000000000000000000000000000000000000000000000000000000000000001100111000110011100011001110001100111000110011100011001110001100111000110 7
b001001001 6
#76100
0$
1(
#76200
0(
b00000000000000000000000001001010 )
#76500
0!
#77000
1!
b001001010 6
#77100
1(
#77200
0(
b00000000000000000000000001001011 )
#77500
0!
#78000
1!
b001001011 6
#78100
1(
#78200
0(
b00000000000000000000000001001100 )
#78500
0!
#79000
1!
b001001100 6
#79100
1$
1(
#79200
0(
b00000000000000000000000001001101 )
#79500
0!
#80000
1!
b00000000000000000000000000000000000000000000000000000000000000000000000000000000000000000000000000000000000000000000000000000000000000000000000000000000000000000000000000000000000000000000000000000000000000000000000000000000000000000000000000000000000000000000000000000000000000000000000000000000000000000000000000000000000000000000000000000000000000000000000000000000000000000000000000000000000000000000000000000000000000000000000000010001100111000110011100011001110001100111000110011100011001110001100111000110 7
b001001101 6
#80100
1(
#80200
0(
b00000000000000000000000001001110 )
#80500
0!
#81000
1!
b00000000000000000000000000000000000000000000000000000000000000000000000000000000000000000000000000000000000000000000000000000000000000000000000000000000000000000000000000000000000000000000000000000000000000000000000000000000000000000000000000000000000000000000000000000000000000000000000000000000000000000000000000000000000000000000000000000000000000000000000000000000000000000000000000000000000000000000000000000000000000000000000000110001100111000110011100011001110001100111000110011100011001110001100111000110 7
b001001110 6
#81100
1(
#81200
0(
b00000000000000000000000001001111 )
#81500
0!
#82000
1!
b00000000000000000000000000000000000000000000000000000000000000000000000000000000000000000000000000000000000000000000000000000000000000000000000000000000000000000000000000000000000000000000000000000000000000000000000000000000000000000000000000000000000000000000000000000000000000000000000000000000000000000000000000000000000000000000000000000000000000000000000000000000000000000000000000000000000000000000000000000000000000000000000001110001100111000110011100011001110001100111000110011100011001110001100111000110 7
b001001111 6
#82100
0$
1(
#82200
0(
b00000000000000000000000001010000 )
#82500
0!
#83000
1!
b001010000 6
#83100
1(
#83200
0(
b00000000000000000000000001010001 )
#83500
0!
#84000
1!
b001010001 6
#84100
1$
1(
#84200
0(
b00000000000000000000000001010010 )
#84500
0!
#85000
1!
b00000000000000000000000000000000000000000000000000000000000000000000000000000000000000000000000000000000000000000000000000000000000000000000000000000000000000000000000000000000000000000000000000000000000000000000000000000000000000000000000000000000000000000000000000000000000000000000000000000000000000000000000000000000000000000000000000000000000000000000000000000000000000000000000000000000000000000000000000000000000000000000001001110001100111000110011100011001110001100111000110011100011001110001100111000110 7
b001010010 6
#85100
1(
#85200
0(
b00000000000000000000000001010011 )
#85500
0!
#86000
1!
b00000000000000000000000000000000000000000000000000000000000000000000000000000000000000000000000000000000000000000000000000000000000000000000000000000000000000000000000000000000000000000000000000000000000000000000000000000000000000000000000000000000000000000000000000000000000000000000000000000000000000000000000000000000000000000000000000000000000000000000000000000000000000000000000000000000000000000000000000000000000000000000011001110001100111000110011100011001110001100111000110011100011001110001100111000110 7
b001010011 6
#86100
0$
1(
#86200
0(
b00000000000000000000000001010100 )
#86500
0!
#87000
1!
b001010100 6
#87100
1(
#87200
0(
b00000000000000000000000001010101 )
#87500
0!
#88000
1!
b001010101 6
#88100
1(
#88200
0(
b00000000000000000000000001010110 )
#88500
0!
#89000
1!
b001010110 6
#89100
1$
1(
#89200
0(
b00000000000000000000000001010111 )
#89500
0!
#90000
1!
b00000000000000000000000000000000000000000000000000000000000000000000000000000000000000000000000000000000000000000000000000000000000000000000000000000000000000000000000000000000000000000000000000000000000000000000000000000000000000000000000000000000000000000000000000000000000000000000000000000000000000000000000000000000000000000000000000000000000000000000000000000000000000000000000000000000000000000000000000000000000000000100011001110001100111000110011100011001110001100111000110011100011001110001100111000110 7
b001010111 6
#90100
1(
#90200
0(
b00000000000000000000000001011000 )
#90500
0!
#91000
1!
b00000000000000000000000000000000000000000000000000000000000000000000000000000000000000000000000000000000000000000000000000000000000000000000000000000000000000000000000000000000000000000000000000000000000000000000000000000000000000000000000000000000000000000000000000000000000000000000000000000000000000000000000000000000000000000000000000000000000000000000000000000000000000000000000000000000000000000000000000000000000000001100011001110001100111000110011100011001110001100111000110011100011001110001100111000110 7
b001011000 6
#91100
1(
#91200
0(
b00000000000000000000000001011001 )
#91500
0!
#92000
1!
b00000000000000000000000000000000000000000000000000000000000000000000000000000000000000000000000000000000000000000000000000000000000000000000000000000000000000000000000000000000000000000000000000000000000000000000000000000000000000000000000000000000000000000000000000000000000000000000000000000000000000000000000000000000000000000000000000000000000000000000000000000000000000000000000000000000000000000000000000000000000000011100011001110001100111000110011100011001110001100111000110011100011001110001100111000110 7
b001011001 6
#92100
0$
1(
#92200
0(
b00000000000000000000000001011010 )
#92500
0!
#93000
1!
b001011010 6
#93100
1(
#93200
0(
b00000000000000000000000001011011 )
#93500
0!
#94000
1!
b001011011 6
#94100
1$
1(
#94200
0(
b00000000000000000000000001011100 )
#94500
0!
#95000
1!
b00000000000000000000000000000000000000000000000000000000000000000000000000000000000000000000000000000000000000000000000000000000000000000000000000000000000000000000000000000000000000000000000000000000000000000000000000000000000000000000000000000000000000000000000000000000000000000000000000000000000000000000000000000000000000000000000000000000000000000000000000000000000000000000000000000000000000000000000000000000000010011100011001110001100111000110011100011001110001100111000110011100011001110001100111000110 7
b001011100 6
#95100
1(
#95200
0(
b00000000000000000000000001011101 )
#95500
0!
#96000
1!
b00000000000000000000000000000000000000000000000000000000000000000000000000000000000000000000000000000000000000000000000000000000000000000000000000000000000000000000000000000000000000000000000000000000000000000000000000000000000000000000000000000000000000000000000000000000000000000000000000000000000000000000000000000000000000000000000000000000000000000000000000000000000000000000000000000000000000000000000000000000000110011100011001110001100111000110011100011001110001100111000110011100011001110001100111000110 7
b001011101 6
#96100
0$
1(
#96200
0(
b00000000000000000000000001011110 )
#96500
0!
#97000
1!
b001011110 6
#97100
1(
#97200
0(
b00000000000000000000000001011111 )
#97500
0!
#98000
1!
b001011111 6
#98100
1(
#98200
0(
b00000000000000000000000001100000 )
#98500
0!
#99000
1!
b001100000 6
#99100
1$
1(
#99200
0(
b00000000000000000000000001100001 )
#99500
0!
#100000
1!
b00000000000000000000000000000000000000000000000000000000000000000000000000000000000000000000000000000000000000000000000000000000000000000000000000000000000000000000000000000000000000000000000000000000000000000000000000000000000000000000000000000000000000000000000000000000000000000000000000000000000000000000000000000000000000000000000000000000000000000000000000000000000000000000000000000000000000000000000000000001000110011100011001110001100111000110011100011001110001100111000110011100011001110001100111000110 7
b001100001 6
#100100
1(
#100200
0(
b00000000000000000000000001100010 )
#100500
0!
