tb/tb_count.vcd
$date
	Sun Apr 20 22:14:53 2025
$end

$version
	Synopsys VCS version U-2023.03-SP2-8
$end

$timescale
	1ps
$end

$comment Csum: 1 cf980b22ccfeade9 $end


$scope module tb_counter $end
$var reg 1 ! clk $end
$var reg 1 " rst $end
$var reg 1 # en $end
$var reg 3 $ out [2:0] $end

$scope module dut $end
$var reg 1 ! clk $end
$var reg 1 " rst $end
$var reg 1 # en $end
$var reg 3 $ out [2:0] $end
$var reg 3 $ counter [2:0] $end
$upscope $end

$upscope $end

$enddefinitions $end

#0
$dumpvars
0!
0#
1"
b000 $
$end
#5000
1!
#10000
0"
1#
0!
#15000
1!
b001 $
#20000
0!
#25000
1!
b010 $
#30000
0!
#35000
1!
b011 $
#40000
0!
#45000
1!
b100 $
#50000
0!
#55000
1!
b101 $
#60000
0!
#65000
1!
b110 $
#70000
0!
#75000
1!
b111 $
#80000
0!
#85000
1!
b000 $
#90000
0!
#95000
1!
b001 $
#100000
0!
#105000
1!
1"
b000 $
#110000
0!
#115000
1!
0"
b001 $
#120000
0!
#125000
1!
b010 $
#130000
0!
#135000
1!
b011 $
#140000
0!
#145000
1!
b100 $
#150000
0!
#155000
1!
b101 $
#160000
0!
#165000
1!
b110 $
#170000
0!
#175000
1!
b111 $
#180000
0!
#185000
1!
b000 $
#190000
0!
#195000
1!
b001 $
#200000
0!
#205000
1!
b010 $
